5.464027593083042,-6.377368835784747
-0.6268769149726208,0.3075854352740368
-0.5749171523745447,-2.1205635529196956
-1.2824124876686702,0.10626153024629525
4.502644314612604,-5.152151248499324
4.014902812741092,-8.163330226768604
-1.385723072701559,-1.7327139660246167
5.396173581941215,-6.850239107353497
-0.6951028502429641,0.03583319045856498
4.757302380474171,-7.362132131887794
5.469759397159354,-5.409484928078577
-3.915806719773138,-0.35117176570698605
4.103238017462431,-5.904950656561035
-2.786298413778536,-0.9587551645599819
5.79251766857477,-7.019013446639782
1.2144345645330565,2.091799571968654
4.7423970182219914,-7.571805549226448
7.497077604717006,-8.02373979281882
5.11371101316978,-6.399730468345745
-0.8003333601303468,-1.6089478958510155
5.046404837435304,-6.8836867116733265
5.063051812809209,-5.527070827437278
1.853155664295341,-8.367773243251275
-3.3645393743271015,-1.54296246533136
-0.8333439415845607,-0.8353618116893531
-3.1102880998505995,-1.295201156184342
-3.124887377942038,0.9582873318057665
3.643367072656759,-6.532633240091703
2.2433521298925334,-7.4879842697493615
4.246478580240448,-5.376587107989747
5.833616809847991,-6.139026746831483
-2.196564213593601,-0.004570976707972685
7.079894360169041,-5.992105956630303
6.412727288162361,-7.298537786865531
6.270598059574293,-6.297242630568372
3.446992672886472,-7.129565849925965
-0.2099860627116521,-0.458895544954086
-1.2979853151688063,0.5568372866082145
-3.725452421534447,1.1179895603780179
5.0154870939024,-6.413096026122118
2.700907334816624,-4.87793140891156
-1.8886063774125255,0.5933344801853204
-2.1373171769076977,-0.6811746207927807
-1.0742034786185375,0.7451372657516447
-3.323961861926353,-0.5485663283337702
4.469924154872674,-5.254847291420358
-1.9726348550793509,-0.764964421466685
-2.4232459294116184,-2.6497112262286424
4.059414164558676,-7.904018398076605
-0.9140636381594918,-0.6768281573560058
6.042816980578847,-5.647262038231093
4.823957930898708,-7.55704582276698
5.161208066159299,-6.7904208999468585
2.3556513721198664,-7.040630079353394
2.8350602515377767,-6.404861205648777
-1.7618969801298685,-0.44359189802993754
-3.27492339242432,-0.029196335649804506
6.416570425687165,-6.7922247206091395
4.761967057027229,-6.582100683668279
4.6892365326319405,-5.868099872691509
6.101023435524968,-5.912453391452814
7.075675709497682,-8.097199080507453
3.5856924712947094,-6.0347735691174895
3.6821988875716345,-6.462408060648739
-2.6303024689569767,-1.7550662117961422
4.840542949136648,-7.059500465058025
5.10949133955351,-6.324912762234641
6.447241121816088,-7.271277582104116
5.7508102471964015,-6.06999245270918
4.2291531990828855,-8.509205169609409
6.844924825057319,-7.071896110858508
3.489354874282881,-6.321770177947085
7.661596386921307,-9.01179039616057
6.0599340761179405,-5.792278618727802
-1.7114613351058023,-1.142245873930349
5.265326279628784,-8.108806254740777
3.251093609506334,-6.658648602020398
-3.2693889347608147,-0.3548729248044469
-3.385296903853201,1.8685745962145761
6.710532523101961,-6.12965707820034
3.6627721818956824,-6.06286684912502
6.320463292500628,-6.480432970381263
-2.78618287888209,1.1712509372495326
-2.8520462600165297,-0.7947834081316166
3.8341996701128234,-5.652881678035122
2.61831360346566,-6.129213717635631
2.6423496102655726,-6.702939586204548
3.569121282663866,-5.532890210758957
4.644164112792081,-5.6665389235621015
4.372176660983561,-5.501548492992394
-2.4255148532194157,-0.2977169809846496
6.02164816805853,-7.2656238798326
2.4256084242729328,-6.433043422923921
7.249958292034528,-7.055524524387952
5.252674042083851,-6.170629296519561
2.7492246826456235,-6.475099909111855
6.913186464084575,-7.6482169656072685
5.644914444851254,-5.048969638160016
-2.2390890628391547,-1.3351739363219426
5.401061073632485,-6.8641201245017465
